^C:\USERS\BISHW\SOURCE\FINITE STATE MACHINE ROHIT MUKHERJEE\OUTGAME\BALL.OBJ|C:\USERS\BISHW\SOURCE\FINITE STATE MACHINE ROHIT MUKHERJEE\OUTGAME\BOX.OBJ|C:\USERS\BISHW\SOURCE\FINITE STATE MACHINE ROHIT MUKHERJEE\OUTGAME\COMPONENT.OBJ|C:\USERS\BISHW\SOURCE\FINITE STATE MACHINE ROHIT MUKHERJEE\OUTGAME\FSM.OBJ|C:\USERS\BISHW\SOURCE\FINITE STATE MACHINE ROHIT MUKHERJEE\OUTGAME\GAME.OBJ|C:\USERS\BISHW\SOURCE\FINITE STATE MACHINE ROHIT MUKHERJEE\OUTGAME\GAMEMANAGER.OBJ|C:\USERS\BISHW\SOURCE\FINITE STATE MACHINE ROHIT MUKHERJEE\OUTGAME\GAMEOBJECT.OBJ|C:\USERS\BISHW\SOURCE\FINITE STATE MACHINE ROHIT MUKHERJEE\OUTGAME\INPUTMANAGER.OBJ|C:\USERS\BISHW\SOURCE\FINITE STATE MACHINE ROHIT MUKHERJEE\OUTGAME\MAIN.OBJ|C:\USERS\BISHW\SOURCE\FINITE STATE MACHINE ROHIT MUKHERJEE\OUTGAME\PHYSICS.OBJ|C:\USERS\BISHW\SOURCE\FINITE STATE MACHINE ROHIT MUKHERJEE\OUTGAME\PUZZLEHANDLER.OBJ|C:\USERS\BISHW\SOURCE\FINITE STATE MACHINE ROHIT MUKHERJEE\OUTGAME\RENDERER.OBJ|C:\USERS\BISHW\SOURCE\FINITE STATE MACHINE ROHIT MUKHERJEE\OUTGAME\SHAPE.OBJ|C:\USERS\BISHW\SOURCE\FINITE STATE MACHINE ROHIT MUKHERJEE\OUTGAME\STATE.OBJ|C:\USERS\BISHW\SOURCE\FINITE STATE MACHINE ROHIT MUKHERJEE\OUTGAME\STOPWATCH.OBJ|C:\USERS\BISHW\SOURCE\FINITE STATE MACHINE ROHIT MUKHERJEE\OUTGAME\STOPWATCHPAUSE.OBJ|C:\USERS\BISHW\SOURCE\FINITE STATE MACHINE ROHIT MUKHERJEE\OUTGAME\STOPWATCHRESET.OBJ|C:\USERS\BISHW\SOURCE\FINITE STATE MACHINE ROHIT MUKHERJEE\OUTGAME\STOPWATCHSM.OBJ|C:\USERS\BISHW\SOURCE\FINITE STATE MACHINE ROHIT MUKHERJEE\OUTGAME\STOPWATCHSTART.OBJ|C:\USERS\BISHW\SOURCE\FINITE STATE MACHINE ROHIT MUKHERJEE\OUTGAME\TRAFFICLIGHTSM.OBJ|C:\USERS\BISHW\SOURCE\FINITE STATE MACHINE ROHIT MUKHERJEE\OUTGAME\TRAFFICLIGHTSTATE.OBJ|C:\USERS\BISHW\SOURCE\FINITE STATE MACHINE ROHIT MUKHERJEE\OUTGAME\TRANSFORM.OBJ|C:\USERS\BISHW\SOURCE\FINITE STATE MACHINE ROHIT MUKHERJEE\OUTGAME\TRIGGER.OBJ|C:\USERS\BISHW\SOURCE\FINITE STATE MACHINE ROHIT MUKHERJEE\OUTGAME\VENDINGINPUTSTATE.OBJ|C:\USERS\BISHW\SOURCE\FINITE STATE MACHINE ROHIT MUKHERJEE\OUTGAME\VENDINGOUTPUT.OBJ|C:\USERS\BISHW\SOURCE\FINITE STATE MACHINE ROHIT MUKHERJEE\OUTGAME\VENDINGSELECTSTATE.OBJ|C:\USERS\BISHW\SOURCE\FINITE STATE MACHINE ROHIT MUKHERJEE\OUTGAME\VENDINGSM.OBJ|C:\USERS\BISHW\SOURCE\FINITE STATE MACHINE ROHIT MUKHERJEE\OUTGAME\VENDINGSTATE.OBJ
C:\PROGRAM FILES (X86)\WINDOWS KITS\10\LIB\10.0.18362.0\UM\X86\KERNEL32.LIB
C:\PROGRAM FILES (X86)\WINDOWS KITS\10\LIB\10.0.18362.0\UM\X86\USER32.LIB
C:\PROGRAM FILES (X86)\WINDOWS KITS\10\LIB\10.0.18362.0\UM\X86\GDI32.LIB
C:\PROGRAM FILES (X86)\WINDOWS KITS\10\LIB\10.0.18362.0\UM\X86\WINSPOOL.LIB
C:\PROGRAM FILES (X86)\WINDOWS KITS\10\LIB\10.0.18362.0\UM\X86\COMDLG32.LIB
C:\PROGRAM FILES (X86)\WINDOWS KITS\10\LIB\10.0.18362.0\UM\X86\ADVAPI32.LIB
C:\PROGRAM FILES (X86)\WINDOWS KITS\10\LIB\10.0.18362.0\UM\X86\SHELL32.LIB
C:\PROGRAM FILES (X86)\WINDOWS KITS\10\LIB\10.0.18362.0\UM\X86\OLE32.LIB
C:\PROGRAM FILES (X86)\WINDOWS KITS\10\LIB\10.0.18362.0\UM\X86\OLEAUT32.LIB
C:\PROGRAM FILES (X86)\WINDOWS KITS\10\LIB\10.0.18362.0\UM\X86\UUID.LIB
C:\PROGRAM FILES (X86)\WINDOWS KITS\10\LIB\10.0.18362.0\UM\X86\ODBC32.LIB
C:\PROGRAM FILES (X86)\WINDOWS KITS\10\LIB\10.0.18362.0\UM\X86\ODBCCP32.LIB
C:\PROGRAM FILES (X86)\WINDOWS KITS\10\LIB\10.0.18362.0\UM\X86\WINMM.LIB
C:\USERS\BISHW\SOURCE\FINITE STATE MACHINE ROHIT MUKHERJEE\OUT\ENGINEXD.LIB
C:\USERS\BISHW\SOURCE\FINITE STATE MACHINE ROHIT MUKHERJEE\3RDPARTY\SDL\SDL2-2.0.3\LIB\X86\SDL2.LIB
C:\USERS\BISHW\SOURCE\FINITE STATE MACHINE ROHIT MUKHERJEE\3RDPARTY\SDL\SDL2_GFX-1.0.1\LIB\SDL2-GFX.LIB
C:\USERS\BISHW\SOURCE\FINITE STATE MACHINE ROHIT MUKHERJEE\3RDPARTY\SDL\SDL2_TTF-2.0.12\LIB\SDL2-TTF.LIB
C:\USERS\BISHW\SOURCE\FINITE STATE MACHINE ROHIT MUKHERJEE\OUTGAME\BALL.OBJ
C:\USERS\BISHW\SOURCE\FINITE STATE MACHINE ROHIT MUKHERJEE\OUTGAME\BOX.OBJ
C:\USERS\BISHW\SOURCE\FINITE STATE MACHINE ROHIT MUKHERJEE\OUTGAME\FSM.OBJ
C:\USERS\BISHW\SOURCE\FINITE STATE MACHINE ROHIT MUKHERJEE\OUTGAME\GAMEMANAGER.OBJ
C:\USERS\BISHW\SOURCE\FINITE STATE MACHINE ROHIT MUKHERJEE\OUTGAME\COMPONENT.OBJ
C:\USERS\BISHW\SOURCE\FINITE STATE MACHINE ROHIT MUKHERJEE\OUTGAME\GAME.OBJ
C:\USERS\BISHW\SOURCE\FINITE STATE MACHINE ROHIT MUKHERJEE\OUTGAME\GAMEOBJECT.OBJ
C:\USERS\BISHW\SOURCE\FINITE STATE MACHINE ROHIT MUKHERJEE\OUTGAME\MAIN.OBJ
C:\USERS\BISHW\SOURCE\FINITE STATE MACHINE ROHIT MUKHERJEE\OUTGAME\INPUTMANAGER.OBJ
C:\USERS\BISHW\SOURCE\FINITE STATE MACHINE ROHIT MUKHERJEE\OUTGAME\PHYSICS.OBJ
C:\USERS\BISHW\SOURCE\FINITE STATE MACHINE ROHIT MUKHERJEE\OUTGAME\PUZZLEHANDLER.OBJ
C:\USERS\BISHW\SOURCE\FINITE STATE MACHINE ROHIT MUKHERJEE\OUTGAME\RENDERER.OBJ
C:\USERS\BISHW\SOURCE\FINITE STATE MACHINE ROHIT MUKHERJEE\OUTGAME\SHAPE.OBJ
C:\USERS\BISHW\SOURCE\FINITE STATE MACHINE ROHIT MUKHERJEE\OUTGAME\STATE.OBJ
C:\USERS\BISHW\SOURCE\FINITE STATE MACHINE ROHIT MUKHERJEE\OUTGAME\STOPWATCH.OBJ
C:\USERS\BISHW\SOURCE\FINITE STATE MACHINE ROHIT MUKHERJEE\OUTGAME\STOPWATCHPAUSE.OBJ
C:\USERS\BISHW\SOURCE\FINITE STATE MACHINE ROHIT MUKHERJEE\OUTGAME\STOPWATCHRESET.OBJ
C:\USERS\BISHW\SOURCE\FINITE STATE MACHINE ROHIT MUKHERJEE\OUTGAME\STOPWATCHSM.OBJ
C:\USERS\BISHW\SOURCE\FINITE STATE MACHINE ROHIT MUKHERJEE\OUTGAME\STOPWATCHSTART.OBJ
C:\USERS\BISHW\SOURCE\FINITE STATE MACHINE ROHIT MUKHERJEE\OUTGAME\TRAFFICLIGHTSM.OBJ
C:\USERS\BISHW\SOURCE\FINITE STATE MACHINE ROHIT MUKHERJEE\OUTGAME\TRAFFICLIGHTSTATE.OBJ
C:\USERS\BISHW\SOURCE\FINITE STATE MACHINE ROHIT MUKHERJEE\OUTGAME\TRANSFORM.OBJ
C:\USERS\BISHW\SOURCE\FINITE STATE MACHINE ROHIT MUKHERJEE\OUTGAME\TRIGGER.OBJ
C:\USERS\BISHW\SOURCE\FINITE STATE MACHINE ROHIT MUKHERJEE\OUTGAME\VENDINGINPUTSTATE.OBJ
C:\USERS\BISHW\SOURCE\FINITE STATE MACHINE ROHIT MUKHERJEE\OUTGAME\VENDINGOUTPUT.OBJ
C:\USERS\BISHW\SOURCE\FINITE STATE MACHINE ROHIT MUKHERJEE\OUTGAME\VENDINGSELECTSTATE.OBJ
C:\USERS\BISHW\SOURCE\FINITE STATE MACHINE ROHIT MUKHERJEE\OUTGAME\VENDINGSM.OBJ
C:\USERS\BISHW\SOURCE\FINITE STATE MACHINE ROHIT MUKHERJEE\OUTGAME\VENDINGSTATE.OBJ
C:\WINDOWS\SYSTEM32\TZRES.DLL
C:\WINDOWS\GLOBALIZATION\SORTING\SORTDEFAULT.NLS
C:\PROGRAM FILES (X86)\MICROSOFT VISUAL STUDIO\2019\COMMUNITY\VC\TOOLS\MSVC\14.25.28610\LIB\X86\MSVCRTD.LIB
C:\PROGRAM FILES (X86)\MICROSOFT VISUAL STUDIO\2019\COMMUNITY\VC\TOOLS\MSVC\14.25.28610\LIB\X86\OLDNAMES.LIB
C:\PROGRAM FILES (X86)\MICROSOFT VISUAL STUDIO\2019\COMMUNITY\VC\TOOLS\MSVC\14.25.28610\LIB\X86\MSVCPRTD.LIB
C:\PROGRAM FILES (X86)\MICROSOFT VISUAL STUDIO\2019\COMMUNITY\VC\TOOLS\MSVC\14.25.28610\LIB\X86\VCRUNTIMED.LIB
C:\PROGRAM FILES (X86)\WINDOWS KITS\10\LIB\10.0.18362.0\UCRT\X86\UCRTD.LIB
C:\PROGRAM FILES (X86)\MICROSOFT VISUAL STUDIO\2019\COMMUNITY\VC\TOOLS\MSVC\14.25.28610\BIN\HOSTX86\X86\CVTRES.EXE
C:\PROGRAM FILES (X86)\MICROSOFT VISUAL STUDIO\2019\COMMUNITY\VC\TOOLS\MSVC\14.25.28610\BIN\HOSTX86\X86\MSPDBSRV.EXE
C:\PROGRAM FILES (X86)\MICROSOFT VISUAL STUDIO\2019\COMMUNITY\VC\TOOLS\MSVC\14.25.28610\BIN\HOSTX86\X86\1033\LINKUI.DLL
